<?xml version="1.0" encoding="UTF-8" standalone="no"?>
<svg width="40px" height="40px" viewBox="0 0 40 40" version="1.1" xmlns="http://www.w3.org/2000/svg" xmlns:xlink="http://www.w3.org/1999/xlink">
    <!-- Generator: Sketch 46.2 (44496) - http://www.bohemiancoding.com/sketch -->
    <title>Add Model</title>
    <desc>Created with Sketch.</desc>
    <defs>
        <path d="M11.8185073,4.73482666 L24.4693833,4.73482666 C25.4500874,4.73482666 26.2451051,5.59667852 26.2451051,6.65982666 C26.2451051,7.7229748 25.4500874,8.58482666 24.4693833,8.58482666 L11.8185073,8.58482666 C10.8378032,8.58482666 10.0427855,7.7229748 10.0427855,6.65982666 C10.0427855,5.59667852 10.8378032,4.73482666 11.8185073,4.73482666 Z" id="path-1"></path>
    </defs>
    <g stroke="none" stroke-width="1" fill="none" fill-rule="evenodd">
        <g transform="translate(-288.000000, -83.000000)"></g>
        <g>
            <g transform="translate(19.781250, 18.542969)" fill="#3C3C3C">
                <g transform="translate(0.750000, 0.250000)">
                    <g>
                        <g transform="translate(0.442125, 7.451375)">
                            <path d="M2.5,3.75 C1.62375,3.75 0.9175,3.04875 0.9175,2.17375 C0.9175,1.2975 1.62375,0.58375 2.5,0.58375 L14.92375,0.58375 C15.7975,0.58375 16.52125,1.2975 16.52125,2.17375 C16.52125,3.04875 15.7975,3.75 14.92375,3.75"></path>
                        </g>
                        <g transform="translate(7.577125, 0.899875)">
                            <path d="M0,2.5 C0,1.62125 0.70125,0.91625 1.5775,0.91625 C2.45125,0.91625 3.1675,1.62125 3.1675,2.5 L3.1675,14.9225 C3.1675,15.7975 2.45125,16.52 1.5775,16.52 C0.70125,16.52 0,15.7975 0,14.9225"></path>
                        </g>
                    </g>
                </g>
            </g>
            <g transform="translate(17.656885, 18.746293) rotate(315.000000) translate(-17.656885, -18.746293) translate(-0.843115, 11.746293)">
                <rect stroke="#3C3C3C" stroke-width="3.85" x="2.53271484" y="1.925" width="12.5890625" height="9.38423109" rx="3.5"></rect>
                <rect stroke="#3C3C3C" stroke-width="3.85" x="21.5291016" y="1.925" width="12.5890625" height="9.38423109" rx="3.5"></rect>
                <g>
                    <use fill="#3C3C3C" fill-rule="evenodd" xlink:href="#path-1"></use>
                    <path stroke="#3C3C3C" stroke-width="1.4" d="M11.8185073,5.43482666 C11.237586,5.43482666 10.7427855,5.97122317 10.7427855,6.65982666 C10.7427855,7.34843015 11.237586,7.88482666 11.8185073,7.88482666 L24.4693833,7.88482666 C25.0503046,7.88482666 25.5451051,7.34843015 25.5451051,6.65982666 C25.5451051,5.97122317 25.0503046,5.43482666 24.4693833,5.43482666 L11.8185073,5.43482666 Z"></path>
                </g>
            </g>
        </g>
    </g>
</svg>