<?xml version="1.0" encoding="UTF-8" standalone="no"?>
<svg width="40px" height="40px" viewBox="0 0 40 40" version="1.1" xmlns="http://www.w3.org/2000/svg" xmlns:xlink="http://www.w3.org/1999/xlink">
    <!-- Generator: Sketch 46.2 (44496) - http://www.bohemiancoding.com/sketch -->
    <title>VoltageProbe</title>
    <desc>Created with Sketch.</desc>
    <defs></defs>
    <g stroke="none" stroke-width="1" fill="none" fill-rule="evenodd">
        <g transform="translate(-142.000000, -83.000000)"></g>
        <g>
            <path d="M31.2450805,20.9751037 C31.3500303,20.6846459 31.5336898,20.4495168 31.7960644,20.2697095 C32.058439,20.0899023 32.3208097,20 32.5831843,20 C32.9898649,20 33.3276671,20.1210223 33.5966011,20.3630705 C33.865535,20.6051188 34,20.9266923 34,21.3278008 C34,21.3831261 33.9967204,21.4591973 33.990161,21.5560166 C33.9836016,21.6528359 33.9672035,21.7289071 33.940966,21.7842324 L30.1037567,33.5892116 C29.9594507,34.0041515 29.7725116,34.3430139 29.5429338,34.6058091 C29.313356,34.8686044 28.9624353,35 28.490161,35 C28.0178867,35 27.666966,34.8651466 27.4373882,34.5954357 C27.2078104,34.3257248 27.0274306,33.9903201 26.8962433,33.5892116 L23.059034,21.7842324 C23.0327965,21.7289071 23.0163984,21.6528359 23.009839,21.5560166 C23.0032796,21.4591973 23,21.3831261 23,21.3278008 C23,20.9266923 23.1410242,20.6051188 23.4230769,20.3630705 C23.7051296,20.1210223 24.0363726,20 24.4168157,20 C24.6529529,20 24.902205,20.0864445 25.1645796,20.2593361 C25.4269542,20.4322277 25.6106137,20.6708145 25.7155635,20.9751037 L28.1359571,28.9834025 C28.2277882,29.2876917 28.2999401,29.6230964 28.352415,29.9896266 C28.4048899,30.3561567 28.4508048,30.698477 28.490161,31.0165975 C28.5295172,30.698477 28.5754321,30.3561567 28.627907,29.9896266 C28.6803819,29.6230964 28.7525338,29.2876917 28.8443649,28.9834025 L31.2450805,20.9751037 Z" fill="#3C3C3C"></path>
            <g transform="translate(18.005362, 17.673060) rotate(-9.000000) translate(-18.005362, -17.673060) translate(-1.994638, 1.673060)">
                <g transform="translate(7.000795, 0.891928)" fill="#3C3C3C">
                    <path d="M7.5695566,16.1151863 L27.2022437,0.582099192 L27.2022437,0.582099192 C27.7566807,0.143436934 28.5600361,0.228271441 29.0106201,0.77306414 L31.3604036,3.61414362 L31.3604036,3.61414362 C31.8179901,4.16740288 31.7404319,4.98685524 31.1871727,5.44444169 C31.1776076,5.4523527 31.1679298,5.46012631 31.1581421,5.46776012 L11.3882555,20.8870809 C12.4915082,22.6532319 12.4466314,23.9963831 11.2536248,24.9165346 C11.2938563,24.8930006 3.68880136,15.4814756 3.62727094,15.4758222 C4.66461074,14.562858 5.97870596,14.7759794 7.5695566,16.1151863 Z"></path>
                    <path d="M4.57163353,17.2438574 L9.43383217,23.2679425 L9.43383217,23.2679425 C9.52310117,23.3785435 9.50580816,23.5405701 9.39520716,23.6298391 C9.35947959,23.6586758 9.31668799,23.6774294 9.27127017,23.6841551 L7.42769479,23.9571597 L4.92088904,25.7577031 L4.92088904,25.7577031 C4.69793078,25.9178456 4.38853225,25.8748323 4.21771137,25.6599458 L1.00491557,21.6183641 L1.00491557,21.6183641 C0.828025183,21.3958423 0.865016713,21.0720548 1.08753847,20.8951644 C1.08930581,20.8937595 1.09108237,20.8923662 1.09286804,20.8909847 L3.7991091,18.7972159 L4.12012463,17.3497712 L4.12012463,17.3497712 C4.15089905,17.2110107 4.28833423,17.1234707 4.42709471,17.1542452 C4.48403705,17.1668739 4.53500072,17.1984707 4.57163353,17.2438574 Z"></path>
                </g>
                <path d="M8.93190324,22.6596303 L11.1275401,25.5211894 L4.70929264,29.6143611 L4.70929264,29.6143611 C4.62466688,29.6683303 4.51314715,29.651217 4.44859788,29.5743562 L3.28483491,28.1886272 L3.28483491,28.1886272 C3.21641151,28.1071533 3.22375165,27.9863713 3.30153768,27.9137828 L8.93190324,22.6596303 Z" fill="#3C3C3C"></path>
                <path d="M6.69787563,26.5971829 L0.262161668,31.6311076" stroke="#3C3C3C" stroke-linecap="round"></path>
            </g>
        </g>
    </g>
</svg>